0.364943,0.854152
-0.437635,-2.2865
-0.586251,-0.0297043
-0.877001,1.30698
1.23589,0.459499
-2.06446,0.983517
-1.35529,0.811948
0.401964,-0.199437
-1.49508,-1.70872
0.0565366,1.23023
0.216862,-1.39846
0.406596,0.418921
0.943237,-0.505664
0.49932,-1.71576
1.90523,-0.270361
-1.29964,0.116542
-0.160919,-0.719085
-0.285606,-1.39841
